Abbreviate, Name
Rec-A,Recall average
Spec-A,Specificity average
Prec-A,Precision average
Acc-A,Accuracy average
F1S-A,F1Score average
PM-A, Perfect match average
IM-A, Imperfect match average
HL-A, Hamming loss average
