Layers,Iteration,Brain,A-Prec,B-Prec,C-Prec,A-Rec,B-Rec,C-Rec,A-F1S,B-F1S,C-F1S
2,10,EF,0.37,0.33,0.22,0.39,0.51,0.08,0.38,0.40,0.12
2,3000,EF,0.59,0.89,0.93,0.80,0.89,0.50,0.68,0.89,0.65
2,5000,EF,0.78,0.89,0.72,0.78,0.89,0.75,0.78,0.89,0.73
2,10000,EF,0.82,0.85,0.90,0.78,0.92,0.77,0.80,0.88,0.83
2,15000,EF,0.76,0.74,0.90,0.68,0.88,0.69,0.71,0.81,0.78
2,20000,EF,0.80,0.88,0.90,0.81,0.87,0.94,0.81,0.87,0.92
4,10000,EF,0.74,0.89,0.49,0.72,0.90,0.52,0.73,0.89,0.50
6,10000,EF,0.86,0.83,0.79,0.76,0.91,0.85,0.81,0.87,0.82
2,10000,AR,0.84,0.92,0.85,0.88,0.90,0.81,0.86,0.91,0.83
2,10000,BH,0.85,0.91,0.79,0.84,0.93,0.75,0.85,0.92,0.77
2,10000,MF,0.68,0.89,0.76,0.77,0.85,0.65,0.72,0.87,0.70
2,10000,TS,0.88,0.72,0.70,0.72,0.95,0.53,0.79,0.82,0.60
2,10000,VC,0.92,0.77,0.27,0.64,0.93,0.82,0.75,0.85,0.40
2,10000,VG,0.67,0.90,0.81,0.82,0.88,0.55,0.74,0.89,0.65