Subject,Reason
BH,The least dumb of all!
VG,Similar reasons to question 1.
VC,seemed the most consistent
MF,Because it was colliding too much
TS,It is the only one that explores a little big of the map.
AR,Same reason