Subject,Reason
BH,Always on the move but often got stuck in the corners
VG,Because in the demo my clone was visible more time and moving in the center.
VC,Seems a bit erratic at first.. just like me!
MF,Because its behavior was similar to the demo
TS,It's the more active.
AR,It has a similar movement to demo however i don't perceive it as my clone