,,,,,,,,,,,
Layers,Iteration,Brain,TP,FP,TN,FN,Rec,Spec,Prec,Acc,F1S
2,10,EF,153.00,162.00,348.00,375.00,0.29,0.68,0.49,0.48,0.36
2,3000,EF,58.00,257.00,594.00,129.00,0.31,0.70,0.18,0.63,0.23
2,5000,EF,76.00,239.00,578.00,145.00,0.34,0.71,0.24,0.63,0.28
2,10000,EF,20.00,295.00,601.00,122.00,0.14,0.67,0.06,0.60,0.09
2,15000,EF,46.00,269.00,556.00,167.00,0.22,0.67,0.15,0.58,0.17
2,20000,EF,81.00,234.00,560.00,163.00,0.33,0.71,0.26,0.62,0.29
4,10000,EF,49.00,266.00,621.00,102.00,0.32,0.70,0.16,0.65,0.21
6,10000,EF,13.00,302.00,632.00,91.00,0.13,0.68,0.04,0.62,0.06
2,10000,AR,19.00,296.00,686.00,37.00,0.34,0.70,0.06,0.68,0.10
2,10000,BH,5.00,310.00,702.00,21.00,0.19,0.69,0.02,0.68,0.03
2,10000,MF,21.00,294.00,669.00,54.00,0.28,0.69,0.07,0.66,0.11
2,10000,TS,38.00,277.00,664.00,59.00,0.39,0.71,0.12,0.68,0.18
2,10000,VC,8.00,307.00,685.00,38.00,0.17,0.69,0.03,0.67,0.04
2,10000,VG,66.00,249.00,645.00,78.00,0.46,0.72,0.21,0.68,0.29
,,,,,,,,,,,
,,,,,,,,,,,
Layers,Iteration,Brain,TP,FP,TN,FN,Rec,Spec,Prec,Acc,F1S
2,10,EF,83.00,63.00,217.00,210.00,0.28,0.78,0.57,0.52,0.38
2,3000,EF,19.00,127.00,397.00,30.00,0.39,0.76,0.13,0.73,0.19
2,5000,EF,19.00,127.00,365.00,62.00,0.23,0.74,0.13,0.67,0.17
2,10000,EF,5.00,141.00,394.00,33.00,0.13,0.74,0.03,0.70,0.05
2,15000,EF,45.00,101.00,336.00,91.00,0.33,0.77,0.31,0.66,0.32
2,20000,EF,45.00,101.00,322.00,105.00,0.30,0.76,0.31,0.64,0.30
4,10000,EF,21.00,125.00,368.00,59.00,0.26,0.75,0.14,0.68,0.19
6,10000,EF,9.00,137.00,380.00,47.00,0.16,0.74,0.06,0.68,0.09
2,10000,AR,1.00,145.00,427.00,0.00,1.00,0.75,0.01,0.75,0.01
2,10000,BH,0.00,146.00,422.00,5.00,0.00,0.74,0.00,0.74,0.00
2,10000,MF,53.00,93.00,317.00,110.00,0.33,0.77,0.36,0.65,0.34
2,10000,TS,5.00,141.00,415.00,12.00,0.29,0.75,0.03,0.73,0.06
2,10000,VC,17.00,129.00,397.00,30.00,0.36,0.75,0.12,0.72,0.18
2,10000,VG,20.00,126.00,398.00,29.00,0.41,0.76,0.14,0.73,0.21
,,,,,,,,,,,
,,,,,,,,,,,
Layers,Iteration,Brain,TP,FP,TN,FN,Rec,Spec,Prec,Acc,F1S
2,10,EF,32.00,38.00,242.00,263.00,0.11,0.86,0.46,0.48,0.18
2,3000,EF,7.00,63.00,431.00,74.00,0.09,0.87,0.10,0.76,0.09
2,5000,EF,9.00,61.00,362.00,143.00,0.06,0.86,0.13,0.65,0.08
2,10000,EF,2.00,68.00,442.00,63.00,0.03,0.87,0.03,0.77,0.03
2,15000,EF,21.00,49.00,404.00,101.00,0.17,0.89,0.30,0.74,0.22
2,20000,EF,12.00,58.00,458.00,47.00,0.20,0.89,0.17,0.82,0.19
4,10000,EF,4.00,66.00,433.00,72.00,0.05,0.87,0.06,0.76,0.05
6,10000,EF,2.00,68.00,496.00,9.00,0.18,0.88,0.03,0.87,0.05
2,10000,AR,0.00,70.00,502.00,3.00,0.00,0.88,0.00,0.87,0.00
2,10000,BH,0.00,70.00,495.00,10.00,0.00,0.88,0.00,0.86,0.00
2,10000,MF,28.00,42.00,267.00,238.00,0.11,0.86,0.40,0.51,0.17
2,10000,TS,0.00,70.00,467.00,38.00,0.00,0.87,0.00,0.81,0.00
2,10000,VC,9.00,61.00,481.00,24.00,0.27,0.89,0.13,0.85,0.17
2,10000,VG,7.00,63.00,409.00,96.00,0.07,0.87,0.10,0.72,0.08
,,,,,,,,,,,
,,,,,,,,,,,
Layers,Iteration,Brain,Rec-A,Spec-A,Prec-A,Acc-A,F1S,,,,
2,10,EF,0.23,0.77,0.50,0.49,0.31,,,,
2,3000,EF,0.26,0.78,0.14,0.71,0.17,,,,
2,5000,EF,0.21,0.77,0.17,0.65,0.18,,,,
2,10000,EF,0.10,0.76,0.04,0.69,0.06,,,,
2,15000,EF,0.24,0.78,0.25,0.66,0.24,,,,
2,20000,EF,0.28,0.78,0.25,0.69,0.26,,,,
4,10000,EF,0.21,0.77,0.12,0.69,0.15,,,,
6,10000,EF,0.16,0.76,0.04,0.72,0.07,,,,
2,10000,AR,0.45,0.77,0.02,0.77,0.04,,,,
2,10000,BH,0.06,0.77,0.01,0.76,0.01,,,,
2,10000,MF,0.24,0.78,0.28,0.61,0.21,,,,
2,10000,TS,0.23,0.77,0.05,0.74,0.08,,,,
2,10000,VC,0.27,0.78,0.09,0.75,0.13,,,,
2,10000,VG,0.31,0.78,0.15,0.71,0.19,,,,
,,,,,,,,,,,
,,,,,,,,,,,
Layers,Iteration,Brain,Rec-SD,Spec-SD,Prec-SD,Acc-SD,F1S-SD,,,,
2,10,EF,0.10,0.09,0.06,0.03,0.11,,,,
2,3000,EF,0.16,0.09,0.04,0.07,0.07,,,,
2,5000,EF,0.14,0.08,0.06,0.02,0.10,,,,
2,10000,EF,0.06,0.10,0.02,0.09,0.03,,,,
2,15000,EF,0.08,0.11,0.09,0.08,0.07,,,,
2,20000,EF,0.07,0.09,0.07,0.11,0.06,,,,
4,10000,EF,0.14,0.09,0.05,0.06,0.08,,,,
6,10000,EF,0.03,0.10,0.02,0.13,0.02,,,,
2,10000,AR,0.51,0.09,0.03,0.10,0.06,,,,
2,10000,BH,0.11,0.09,0.01,0.09,0.02,,,,
2,10000,MF,0.12,0.08,0.18,0.08,0.12,,,,
2,10000,TS,0.20,0.09,0.06,0.07,0.09,,,,
2,10000,VC,0.09,0.10,0.06,0.09,0.08,,,,
2,10000,VG,0.21,0.08,0.06,0.02,0.10,,,,
,,,,,,,,,,,
,,,,,,,,,,,
,,,,,,,,,,,
,,,,,,,,,,,
Layers,Iteration,Brain,TP,FP,TN,FN,Rec,Spec,Prec,Acc,F1S
2,10,EF,0,3,173,112,0.00,0.98,0.00,0.60,0.00
2,5000,EF,0,3,253,32,0.00,0.99,0.00,0.88,0.00
2,10000,EF,0,3,221,64,0.00,0.99,0.00,0.77,0.00
2,15000,EF,0,3,263,22,0.00,0.99,0.00,0.91,0.00
2,20000,EF,0,3,227,58,0.00,0.99,0.00,0.79,0.00