,,,,,,,,,,,
Layers,Iteration,Brain,AA,BB,CC,AC,AB,BC,BA,CB,CA
2,10,EF,159,90,105,155,162,75,75,103,114
2,3000,EF,364,155,206,45,67,0,85,11,105
2,5000,EF,366,173,206,17,93,0,67,14,102
2,10000,EF,319,146,243,105,52,16,78,13,66
2,15000,EF,293,123,257,131,52,22,95,0,65
2,20000,EF,402,113,229,41,33,0,127,5,88
4,10000,EF,296,138,219,67,113,13,89,22,81
6,10000,EF,256,187,167,53,167,8,45,23,132
2,10000,AR,205,210,246,109,162,5,25,17,59
2,10000,BH,391,176,203,27,58,7,57,1,118
2,10000,MF,343,104,135,81,52,34,102,0,187
2,10000,TS,329,169,196,77,70,16,55,31,95
2,10000,VC,411,129,149,16,49,10,101,14,159
2,10000,VG,390,87,245,74,12,2,151,3,74
,,,,,,,,,,,
,,,,,,,,,,,
Layers,Iteration,Brain,A-Prec,B-Prec,C-Prec,A-Rec,B-Rec,C-Rec,A-F1S,B-F1S,C-F1S
2,10,EF,0.33,0.38,0.33,0.46,0.25,0.31,0.39,0.30,0.32
2,3000,EF,0.76,0.65,0.64,0.66,0.67,0.82,0.71,0.66,0.72
2,5000,EF,0.77,0.72,0.64,0.68,0.62,0.92,0.72,0.67,0.76
2,10000,EF,0.67,0.61,0.75,0.69,0.69,0.67,0.68,0.65,0.71
2,15000,EF,0.62,0.51,0.80,0.65,0.70,0.63,0.63,0.59,0.70
2,20000,EF,0.84,0.47,0.71,0.65,0.75,0.85,0.74,0.58,0.77
4,10000,EF,0.62,0.58,0.68,0.64,0.51,0.73,0.63,0.54,0.71
6,10000,EF,0.54,0.78,0.52,0.59,0.50,0.73,0.56,0.61,0.61
2,10000,AR,0.43,0.88,0.76,0.71,0.54,0.68,0.54,0.67,0.72
2,10000,BH,0.82,0.73,0.63,0.69,0.75,0.86,0.75,0.74,0.73
2,10000,MF,0.72,0.43,0.42,0.54,0.67,0.54,0.62,0.53,0.47
2,10000,TS,0.69,0.70,0.61,0.69,0.63,0.68,0.69,0.66,0.64
2,10000,VC,0.86,0.54,0.46,0.61,0.67,0.85,0.72,0.60,0.60
2,10000,VG,0.82,0.36,0.76,0.63,0.85,0.76,0.71,0.51,0.76
,,,,,,,,,,,
Layers,Iteration,Brain,Prec,Rec,F1S,Acc,,,,,
2,10,EF,0.35,0.34,0.34,0.34,,,,,
2,3000,EF,0.68,0.71,0.69,0.70,,,,,
2,5000,EF,0.71,0.74,0.72,0.72,,,,,
2,10000,EF,0.68,0.68,0.68,0.68,,,,,
2,15000,EF,0.64,0.66,0.64,0.65,,,,,
2,20000,EF,0.68,0.75,0.70,0.72,,,,,
4,10000,EF,0.63,0.62,0.62,0.63,,,,,
6,10000,EF,0.61,0.61,0.59,0.59,,,,,
2,10000,AR,0.69,0.64,0.64,0.64,,,,,
2,10000,BH,0.73,0.77,0.74,0.74,,,,,
2,10000,MF,0.52,0.58,0.54,0.56,,,,,
2,10000,TS,0.67,0.66,0.66,0.67,,,,,
2,10000,VC,0.62,0.71,0.64,0.66,,,,,
2,10000,VG,0.65,0.75,0.66,0.70,,,,,
,,,,,,,,,,,
Layers,Iteration,Brain,AA,BB,CC,AC,AB,BC,BA,CB,CA
2,10,EF,75,70,42,76,77,66,57,59,51
2,3000,EF,106,42,145,120,2,27,124,0,7
2,5000,EF,163,118,116,37,28,1,74,19,17
2,10000,EF,107,147,130,86,35,7,39,6,16
2,15000,EF,133,115,115,78,17,22,56,4,33
2,20000,EF,134,141,80,10,84,3,49,22,50
4,10000,EF,148,115,102,67,13,8,70,2,48
6,10000,EF,163,111,89,44,21,5,77,8,55
2,10000,AR,164,95,84,36,28,10,88,5,63
2,10000,BH,139,160,52,36,53,2,31,5,95
2,10000,MF,186,120,73,19,23,11,62,16,63
2,10000,TS,148,70,85,74,6,15,108,0,67
2,10000,VC,169,139,44,7,52,2,52,3,105
2,10000,VG,182,151,78,3,43,1,41,8,66
,,,,,,,,,,,
Layers,Iteration,Brain,A-Prec,B-Prec,C-Prec,A-Rec,B-Rec,C-Rec,A-F1S,B-F1S,C-F1S
2,10,EF,0.33,0.36,0.28,0.41,0.34,0.23,0.36,0.35,0.25
2,3000,EF,0.46,0.22,0.95,0.45,0.95,0.50,0.46,0.35,0.65
2,5000,EF,0.71,0.61,0.76,0.64,0.72,0.75,0.68,0.66,0.76
2,10000,EF,0.47,0.76,0.86,0.66,0.78,0.58,0.55,0.77,0.69
2,15000,EF,0.58,0.60,0.76,0.60,0.85,0.53,0.59,0.70,0.63
2,20000,EF,0.59,0.73,0.53,0.58,0.57,0.86,0.58,0.64,0.65
4,10000,EF,0.65,0.60,0.67,0.56,0.88,0.58,0.60,0.71,0.62
6,10000,EF,0.71,0.58,0.59,0.55,0.79,0.64,0.62,0.67,0.61
2,10000,AR,0.72,0.49,0.55,0.52,0.74,0.65,0.60,0.59,0.60
2,10000,BH,0.61,0.83,0.34,0.52,0.73,0.58,0.56,0.78,0.43
2,10000,MF,0.82,0.62,0.48,0.60,0.75,0.71,0.69,0.68,0.57
2,10000,TS,0.65,0.36,0.56,0.46,0.92,0.49,0.54,0.52,0.52
2,10000,VC,0.74,0.72,0.29,0.52,0.72,0.83,0.61,0.72,0.43
2,10000,VG,0.80,0.78,0.51,0.63,0.75,0.95,0.70,0.76,0.67
,,,,,,,,,,,
Layers,Iteration,Brain,Prec,Rec,F1S,Acc,,,,,
2,10,EF,0.32,0.33,0.32,0.33,,,,,
2,3000,EF,0.55,0.63,0.49,0.51,,,,,
2,5000,EF,0.70,0.70,0.70,0.69,,,,,
2,10000,EF,0.70,0.68,0.67,0.67,,,,,
2,15000,EF,0.65,0.66,0.64,0.63,,,,,
2,20000,EF,0.61,0.67,0.63,0.62,,,,,
4,10000,EF,0.64,0.67,0.64,0.64,,,,,
6,10000,EF,0.63,0.66,0.63,0.63,,,,,
2,10000,AR,0.59,0.64,0.60,0.60,,,,,
2,10000,BH,0.59,0.61,0.59,0.61,,,,,
2,10000,MF,0.64,0.69,0.65,0.66,,,,,
2,10000,TS,0.52,0.62,0.53,0.53,,,,,
2,10000,VC,0.58,0.69,0.59,0.61,,,,,
2,10000,VG,0.70,0.78,0.71,0.72,,,,,
,,,,,,,,,,,
Layers,Iteration,Brain,AA,BB,CC,AC,AB,BC,BA,CB,CA
2,10,EF,103,47,39,105,116,41,41,43,40
2,3000,EF,245,15,107,75,4,0,114,0,15
2,5000,EF,262,112,97,49,13,1,16,2,23
2,10000,EF,234,123,101,72,18,0,6,0,21
2,15000,EF,227,117,89,71,26,1,11,0,33
2,20000,EF,251,118,84,37,36,0,11,1,37
4,10000,EF,195,100,103,68,61,1,28,1,18
6,10000,EF,218,96,95,95,11,0,33,2,25
2,10000,AR,270,112,97,26,28,6,11,0,25
2,10000,BH,230,106,104,61,33,0,23,0,18
2,10000,MF,312,112,36,2,10,0,17,6,80
2,10000,TS,250,109,94,58,16,0,20,0,28
2,10000,VC,267,79,74,18,39,0,50,0,48
2,10000,VG,252,120,91,37,35,0,9,6,25
,,,,,,,,,,,
Layers,Iteration,Brain,A-Prec,B-Prec,C-Prec,A-Rec,B-Rec,C-Rec,A-F1S,B-F1S,C-F1S
2,10,EF,0.32,0.36,0.32,0.56,0.23,0.21,0.41,0.28,0.25
2,3000,EF,0.76,0.12,0.88,0.66,0.79,0.59,0.70,0.20,0.70
2,5000,EF,0.81,0.87,0.80,0.87,0.88,0.66,0.84,0.88,0.72
2,10000,EF,0.72,0.95,0.83,0.90,0.87,0.58,0.80,0.91,0.68
2,15000,EF,0.70,0.91,0.73,0.84,0.82,0.55,0.76,0.86,0.63
2,20000,EF,0.77,0.91,0.69,0.84,0.76,0.69,0.81,0.83,0.69
4,10000,EF,0.60,0.78,0.84,0.81,0.62,0.60,0.69,0.69,0.70
6,10000,EF,0.67,0.74,0.78,0.79,0.88,0.50,0.73,0.81,0.61
2,10000,AR,0.83,0.87,0.80,0.88,0.80,0.75,0.86,0.83,0.77
2,10000,BH,0.71,0.82,0.85,0.85,0.76,0.63,0.77,0.79,0.72
2,10000,MF,0.96,0.87,0.30,0.76,0.88,0.95,0.85,0.87,0.45
2,10000,TS,0.77,0.84,0.77,0.84,0.87,0.62,0.80,0.86,0.69
2,10000,VC,0.82,0.61,0.61,0.73,0.67,0.80,0.78,0.64,0.69
2,10000,VG,0.78,0.93,0.75,0.88,0.75,0.71,0.83,0.83,0.73
,,,,,,,,,,,
Layers,Iteration,Brain,Prec,Rec,F1S,Acc,,,,,
2,10,EF,0.33,0.33,0.31,0.33,,,,,
2,3000,EF,0.58,0.68,0.54,0.64,,,,,
2,5000,EF,0.82,0.80,0.81,0.82,,,,,
2,10000,EF,0.83,0.78,0.80,0.80,,,,,
2,15000,EF,0.78,0.74,0.75,0.75,,,,,
2,20000,EF,0.79,0.76,0.78,0.79,,,,,
4,10000,EF,0.74,0.68,0.69,0.69,,,,,
6,10000,EF,0.73,0.72,0.71,0.71,,,,,
2,10000,AR,0.83,0.81,0.82,0.83,,,,,
2,10000,BH,0.79,0.75,0.76,0.77,,,,,
2,10000,MF,0.71,0.86,0.72,0.80,,,,,
2,10000,TS,0.80,0.78,0.78,0.79,,,,,
2,10000,VC,0.68,0.74,0.70,0.73,,,,,
2,10000,VG,0.82,0.78,0.79,0.81,,,,,
,,,,,,,,,,,
Layers,Iteration,Brain,Prec-A,Rec-A,F1S,Acc-A,,,,,
2,10,EF,0.33,0.33,0.32,0.33,,,,,
2,3000,EF,0.49,0.55,0.45,0.50,,,,,
2,5000,EF,0.73,0.74,0.73,0.74,,,,,
2,10000,EF,0.75,0.73,0.73,0.73,,,,,
2,15000,EF,0.70,0.69,0.69,0.69,,,,,
2,20000,EF,0.68,0.70,0.68,0.69,,,,,
4,10000,EF,0.68,0.70,0.68,0.68,,,,,
6,10000,EF,0.66,0.67,0.66,0.66,,,,,
2,10000,AR,0.68,0.68,0.67,0.67,,,,,
2,10000,BH,0.69,0.67,0.67,0.67,,,,,
2,10000,MF,0.69,0.77,0.70,0.73,,,,,
2,10000,TS,0.61,0.66,0.62,0.63,,,,,
2,10000,VC,0.64,0.70,0.65,0.67,,,,,
2,10000,VG,0.71,0.76,0.71,0.73,,,,,
,,,,,,,,,,,
Layers,Iteration,Brain,Prec-SD,Rec-SD,Acc-SD,F1S-SD,,,,,
2,10,EF,0.01,0.01,0.01,0.01,,,,,
2,3000,EF,0.07,0.04,0.10,0.11,,,,,
2,5000,EF,0.07,0.05,0.07,0.06,,,,,
2,10000,EF,0.09,0.06,0.07,0.07,,,,,
2,15000,EF,0.08,0.04,0.07,0.06,,,,,
2,20000,EF,0.09,0.05,0.08,0.08,,,,,
4,10000,EF,0.06,0.03,0.03,0.04,,,,,
6,10000,EF,0.07,0.06,0.06,0.06,,,,,
2,10000,AR,0.12,0.10,0.13,0.12,,,,,
2,10000,BH,0.10,0.08,0.08,0.09,,,,,
2,10000,MF,0.09,0.14,0.12,0.09,,,,,
2,10000,TS,0.14,0.08,0.13,0.13,,,,,
2,10000,VC,0.05,0.02,0.06,0.06,,,,,
2,10000,VG,0.09,0.02,0.06,0.07,,,,,
,,,,,,,,,,,
,,,,,,,,,,,
,,,,,,,,,,,
,,,,,,,,,,,
,,,,,,,,,,,
,,,,,,,,,,,
,,,,,,,,,,,
,,,,,,,,,,,
,,,,,,,,,,,
Layers,Iteration,Brain,AA,BB,CC,AC,AB,BC,BA,CB,CA
2,10,EF,46,23,34,40,52,18,21,30,24
2,5000,EF,97,29,25,6,35,4,29,17,46
2,10000,EF,75,33,61,45,18,5,24,9,18
2,15000,EF,109,20,48,9,20,1,41,9,31
2,20000,EF,96,22,51,12,30,2,38,4,33
,,,,,,,,,,,
Layers,Iteration,Brain,A-Prec,B-Prec,C-Prec,A-Rec,B-Rec,C-Rec,A-F1S,B-F1S,C-F1S
2,10,EF,0.33,0.37,0.39,0.51,0.22,0.37,0.40,0.28,0.38
2,5000,EF,0.70,0.47,0.28,0.56,0.36,0.71,0.63,0.41,0.41
2,10000,EF,0.54,0.53,0.69,0.64,0.55,0.55,0.59,0.54,0.61
2,15000,EF,0.79,0.32,0.55,0.60,0.41,0.83,0.68,0.36,0.66
2,20000,EF,0.70,0.35,0.58,0.57,0.39,0.78,0.63,0.37,0.67
,,,,,,,,,,,
Layers,Iteration,Brain,Prec,Rec,F1S,Acc,,,,,
2,10,EF,0.36,0.36,0.35,0.36,,,,,
2,5000,EF,0.48,0.55,0.48,0.52,,,,,
2,10000,EF,0.59,0.58,0.58,0.59,,,,,
2,15000,EF,0.55,0.61,0.57,0.61,,,,,
2,20000,EF,0.54,0.58,0.56,0.59,,,,,