Layers,Iteration,Brain,Prec,Rec,F1S,Acc
2,10,EF,0.32,0.33,0.32,0.33
2,3000,EF,0.55,0.63,0.49,0.51
2,5000,EF,0.70,0.70,0.70,0.69
2,10000,EF,0.70,0.68,0.67,0.67
2,15000,EF,0.65,0.66,0.64,0.63
2,20000,EF,0.61,0.67,0.63,0.62
4,10000,EF,0.64,0.67,0.64,0.64
6,10000,EF,0.63,0.66,0.63,0.63
2,10000,AR,0.59,0.64,0.60,0.60
2,10000,BH,0.59,0.61,0.59,0.61
2,10000,MF,0.64,0.69,0.65,0.66
2,10000,TS,0.52,0.62,0.53,0.53
2,10000,VC,0.58,0.69,0.59,0.61
2,10000,VG,0.70,0.78,0.71,0.72